-- Merging decision tree log ---
manifest
ADDED from /home/wyatt/Desktop/Projects/grpc_all/grpc-java/examples/android/helloworld/app/src/main/AndroidManifest.xml:2:1-29:12
INJECTED from /home/wyatt/Desktop/Projects/grpc_all/grpc-java/examples/android/helloworld/app/src/main/AndroidManifest.xml:2:1-29:12
INJECTED from /home/wyatt/Desktop/Projects/grpc_all/grpc-java/examples/android/helloworld/app/src/main/AndroidManifest.xml:2:1-29:12
INJECTED from /home/wyatt/Desktop/Projects/grpc_all/grpc-java/examples/android/helloworld/app/src/main/AndroidManifest.xml:2:1-29:12
MERGED from [com.android.support:multidex:1.0.2] /home/wyatt/.gradle/caches/transforms-1/files-1.1/multidex-1.0.2.aar/0fcc6a474c06a46865fb34cdec51845b/AndroidManifest.xml:17:1-22:12
MERGED from [com.android.support:appcompat-v7:27.0.2] /home/wyatt/.gradle/caches/transforms-1/files-1.1/appcompat-v7-27.0.2.aar/1a6fd0f55fe577f3b1ec7fd133408836/AndroidManifest.xml:17:1-22:12
MERGED from [com.android.support.constraint:constraint-layout:1.1.2] /home/wyatt/.gradle/caches/transforms-1/files-1.1/constraint-layout-1.1.2.aar/2ba515e43250740cb3081fbfc48c31c0/AndroidManifest.xml:2:1-11:12
MERGED from [com.android.support:support-fragment:27.0.2] /home/wyatt/.gradle/caches/transforms-1/files-1.1/support-fragment-27.0.2.aar/cab06e2c352bb0e68b5c2c9a4f14db35/AndroidManifest.xml:17:1-22:12
MERGED from [com.android.support:support-core-utils:27.0.2] /home/wyatt/.gradle/caches/transforms-1/files-1.1/support-core-utils-27.0.2.aar/eeb39737c9c5c744fc37e28e14b71391/AndroidManifest.xml:17:1-22:12
MERGED from [com.android.support:animated-vector-drawable:27.0.2] /home/wyatt/.gradle/caches/transforms-1/files-1.1/animated-vector-drawable-27.0.2.aar/486da70298b0bec2153de01b847b0663/AndroidManifest.xml:17:1-22:12
MERGED from [com.android.support:support-vector-drawable:27.0.2] /home/wyatt/.gradle/caches/transforms-1/files-1.1/support-vector-drawable-27.0.2.aar/7dcb40215a71b9d4201e6e7c8ecaec71/AndroidManifest.xml:17:1-22:12
MERGED from [com.android.support:support-core-ui:27.0.2] /home/wyatt/.gradle/caches/transforms-1/files-1.1/support-core-ui-27.0.2.aar/693a1b94c7d1e441d5a47c4744c82033/AndroidManifest.xml:17:1-22:12
MERGED from [com.android.support:support-compat:27.0.2] /home/wyatt/.gradle/caches/transforms-1/files-1.1/support-compat-27.0.2.aar/e661249aa6c6284ff695c93a72fbb272/AndroidManifest.xml:17:1-22:12
MERGED from [android.arch.lifecycle:runtime:1.0.3] /home/wyatt/.gradle/caches/transforms-1/files-1.1/runtime-1.0.3.aar/f08c248908091d78cf754b44000ce033/AndroidManifest.xml:17:1-24:12
INJECTED from /home/wyatt/Desktop/Projects/grpc_all/grpc-java/examples/android/helloworld/app/src/main/AndroidManifest.xml:2:1-29:12
INJECTED from /home/wyatt/Desktop/Projects/grpc_all/grpc-java/examples/android/helloworld/app/src/main/AndroidManifest.xml:2:1-29:12
INJECTED from /home/wyatt/Desktop/Projects/grpc_all/grpc-java/examples/android/helloworld/app/src/main/AndroidManifest.xml:2:1-29:12
	package
		ADDED from /home/wyatt/Desktop/Projects/grpc_all/grpc-java/examples/android/helloworld/app/src/main/AndroidManifest.xml:3:5-40
		INJECTED from /home/wyatt/Desktop/Projects/grpc_all/grpc-java/examples/android/helloworld/app/src/main/AndroidManifest.xml
		INJECTED from /home/wyatt/Desktop/Projects/grpc_all/grpc-java/examples/android/helloworld/app/src/main/AndroidManifest.xml
	android:versionName
		INJECTED from /home/wyatt/Desktop/Projects/grpc_all/grpc-java/examples/android/helloworld/app/src/main/AndroidManifest.xml
		ADDED from /home/wyatt/Desktop/Projects/grpc_all/grpc-java/examples/android/helloworld/app/src/main/AndroidManifest.xml:2:1-29:12
		INJECTED from /home/wyatt/Desktop/Projects/grpc_all/grpc-java/examples/android/helloworld/app/src/main/AndroidManifest.xml
	android:versionCode
		INJECTED from /home/wyatt/Desktop/Projects/grpc_all/grpc-java/examples/android/helloworld/app/src/main/AndroidManifest.xml
		ADDED from /home/wyatt/Desktop/Projects/grpc_all/grpc-java/examples/android/helloworld/app/src/main/AndroidManifest.xml:2:1-29:12
		INJECTED from /home/wyatt/Desktop/Projects/grpc_all/grpc-java/examples/android/helloworld/app/src/main/AndroidManifest.xml
	xmlns:android
		ADDED from /home/wyatt/Desktop/Projects/grpc_all/grpc-java/examples/android/helloworld/app/src/main/AndroidManifest.xml:2:11-69
uses-permission#android.permission.INTERNET
ADDED from /home/wyatt/Desktop/Projects/grpc_all/grpc-java/examples/android/helloworld/app/src/main/AndroidManifest.xml:5:5-67
	android:name
		ADDED from /home/wyatt/Desktop/Projects/grpc_all/grpc-java/examples/android/helloworld/app/src/main/AndroidManifest.xml:5:22-64
uses-permission#android.permission.WRITE_EXTERNAL_STORAGE
ADDED from /home/wyatt/Desktop/Projects/grpc_all/grpc-java/examples/android/helloworld/app/src/main/AndroidManifest.xml:6:5-81
	android:name
		ADDED from /home/wyatt/Desktop/Projects/grpc_all/grpc-java/examples/android/helloworld/app/src/main/AndroidManifest.xml:6:22-78
uses-permission#android.permission.READ_EXTERNAL_STORAGE
ADDED from /home/wyatt/Desktop/Projects/grpc_all/grpc-java/examples/android/helloworld/app/src/main/AndroidManifest.xml:7:5-80
	android:name
		ADDED from /home/wyatt/Desktop/Projects/grpc_all/grpc-java/examples/android/helloworld/app/src/main/AndroidManifest.xml:7:22-77
uses-permission#android.permission.RECORD_AUDIO
ADDED from /home/wyatt/Desktop/Projects/grpc_all/grpc-java/examples/android/helloworld/app/src/main/AndroidManifest.xml:8:5-71
	android:name
		ADDED from /home/wyatt/Desktop/Projects/grpc_all/grpc-java/examples/android/helloworld/app/src/main/AndroidManifest.xml:8:22-68
uses-permission#android.permission.MODIFY_AUDIO_SETTINGS
ADDED from /home/wyatt/Desktop/Projects/grpc_all/grpc-java/examples/android/helloworld/app/src/main/AndroidManifest.xml:9:5-80
	android:name
		ADDED from /home/wyatt/Desktop/Projects/grpc_all/grpc-java/examples/android/helloworld/app/src/main/AndroidManifest.xml:9:22-77
application
ADDED from /home/wyatt/Desktop/Projects/grpc_all/grpc-java/examples/android/helloworld/app/src/main/AndroidManifest.xml:10:5-27:19
MERGED from [com.android.support.constraint:constraint-layout:1.1.2] /home/wyatt/.gradle/caches/transforms-1/files-1.1/constraint-layout-1.1.2.aar/2ba515e43250740cb3081fbfc48c31c0/AndroidManifest.xml:9:5-20
MERGED from [com.android.support.constraint:constraint-layout:1.1.2] /home/wyatt/.gradle/caches/transforms-1/files-1.1/constraint-layout-1.1.2.aar/2ba515e43250740cb3081fbfc48c31c0/AndroidManifest.xml:9:5-20
	android:label
		ADDED from /home/wyatt/Desktop/Projects/grpc_all/grpc-java/examples/android/helloworld/app/src/main/AndroidManifest.xml:13:9-41
	android:icon
		ADDED from /home/wyatt/Desktop/Projects/grpc_all/grpc-java/examples/android/helloworld/app/src/main/AndroidManifest.xml:12:9-43
	android:allowBackup
		ADDED from /home/wyatt/Desktop/Projects/grpc_all/grpc-java/examples/android/helloworld/app/src/main/AndroidManifest.xml:11:9-36
	android:theme
		ADDED from /home/wyatt/Desktop/Projects/grpc_all/grpc-java/examples/android/helloworld/app/src/main/AndroidManifest.xml:14:9-61
activity#io.grpc.helloworldexample.HelloworldActivity
ADDED from /home/wyatt/Desktop/Projects/grpc_all/grpc-java/examples/android/helloworld/app/src/main/AndroidManifest.xml:15:9-23:20
	android:label
		ADDED from /home/wyatt/Desktop/Projects/grpc_all/grpc-java/examples/android/helloworld/app/src/main/AndroidManifest.xml:17:13-45
	android:name
		ADDED from /home/wyatt/Desktop/Projects/grpc_all/grpc-java/examples/android/helloworld/app/src/main/AndroidManifest.xml:16:13-47
intent-filter#android.intent.action.MAIN+android.intent.category.LAUNCHER
ADDED from /home/wyatt/Desktop/Projects/grpc_all/grpc-java/examples/android/helloworld/app/src/main/AndroidManifest.xml:18:13-22:29
action#android.intent.action.MAIN
ADDED from /home/wyatt/Desktop/Projects/grpc_all/grpc-java/examples/android/helloworld/app/src/main/AndroidManifest.xml:19:17-69
	android:name
		ADDED from /home/wyatt/Desktop/Projects/grpc_all/grpc-java/examples/android/helloworld/app/src/main/AndroidManifest.xml:19:25-66
category#android.intent.category.LAUNCHER
ADDED from /home/wyatt/Desktop/Projects/grpc_all/grpc-java/examples/android/helloworld/app/src/main/AndroidManifest.xml:21:17-77
	android:name
		ADDED from /home/wyatt/Desktop/Projects/grpc_all/grpc-java/examples/android/helloworld/app/src/main/AndroidManifest.xml:21:27-74
activity#io.grpc.helloworldexample.Communicator
ADDED from /home/wyatt/Desktop/Projects/grpc_all/grpc-java/examples/android/helloworld/app/src/main/AndroidManifest.xml:24:9-26:76
	android:label
		ADDED from /home/wyatt/Desktop/Projects/grpc_all/grpc-java/examples/android/helloworld/app/src/main/AndroidManifest.xml:26:13-64
	android:name
		ADDED from /home/wyatt/Desktop/Projects/grpc_all/grpc-java/examples/android/helloworld/app/src/main/AndroidManifest.xml:25:13-41
uses-sdk
INJECTED from /home/wyatt/Desktop/Projects/grpc_all/grpc-java/examples/android/helloworld/app/src/main/AndroidManifest.xml reason: use-sdk injection requested
INJECTED from /home/wyatt/Desktop/Projects/grpc_all/grpc-java/examples/android/helloworld/app/src/main/AndroidManifest.xml
INJECTED from /home/wyatt/Desktop/Projects/grpc_all/grpc-java/examples/android/helloworld/app/src/main/AndroidManifest.xml
MERGED from [com.android.support:multidex:1.0.2] /home/wyatt/.gradle/caches/transforms-1/files-1.1/multidex-1.0.2.aar/0fcc6a474c06a46865fb34cdec51845b/AndroidManifest.xml:20:5-43
MERGED from [com.android.support:multidex:1.0.2] /home/wyatt/.gradle/caches/transforms-1/files-1.1/multidex-1.0.2.aar/0fcc6a474c06a46865fb34cdec51845b/AndroidManifest.xml:20:5-43
MERGED from [com.android.support:appcompat-v7:27.0.2] /home/wyatt/.gradle/caches/transforms-1/files-1.1/appcompat-v7-27.0.2.aar/1a6fd0f55fe577f3b1ec7fd133408836/AndroidManifest.xml:20:5-44
MERGED from [com.android.support:appcompat-v7:27.0.2] /home/wyatt/.gradle/caches/transforms-1/files-1.1/appcompat-v7-27.0.2.aar/1a6fd0f55fe577f3b1ec7fd133408836/AndroidManifest.xml:20:5-44
MERGED from [com.android.support.constraint:constraint-layout:1.1.2] /home/wyatt/.gradle/caches/transforms-1/files-1.1/constraint-layout-1.1.2.aar/2ba515e43250740cb3081fbfc48c31c0/AndroidManifest.xml:5:5-7:41
MERGED from [com.android.support.constraint:constraint-layout:1.1.2] /home/wyatt/.gradle/caches/transforms-1/files-1.1/constraint-layout-1.1.2.aar/2ba515e43250740cb3081fbfc48c31c0/AndroidManifest.xml:5:5-7:41
MERGED from [com.android.support:support-fragment:27.0.2] /home/wyatt/.gradle/caches/transforms-1/files-1.1/support-fragment-27.0.2.aar/cab06e2c352bb0e68b5c2c9a4f14db35/AndroidManifest.xml:20:5-44
MERGED from [com.android.support:support-fragment:27.0.2] /home/wyatt/.gradle/caches/transforms-1/files-1.1/support-fragment-27.0.2.aar/cab06e2c352bb0e68b5c2c9a4f14db35/AndroidManifest.xml:20:5-44
MERGED from [com.android.support:support-core-utils:27.0.2] /home/wyatt/.gradle/caches/transforms-1/files-1.1/support-core-utils-27.0.2.aar/eeb39737c9c5c744fc37e28e14b71391/AndroidManifest.xml:20:5-44
MERGED from [com.android.support:support-core-utils:27.0.2] /home/wyatt/.gradle/caches/transforms-1/files-1.1/support-core-utils-27.0.2.aar/eeb39737c9c5c744fc37e28e14b71391/AndroidManifest.xml:20:5-44
MERGED from [com.android.support:animated-vector-drawable:27.0.2] /home/wyatt/.gradle/caches/transforms-1/files-1.1/animated-vector-drawable-27.0.2.aar/486da70298b0bec2153de01b847b0663/AndroidManifest.xml:20:5-44
MERGED from [com.android.support:animated-vector-drawable:27.0.2] /home/wyatt/.gradle/caches/transforms-1/files-1.1/animated-vector-drawable-27.0.2.aar/486da70298b0bec2153de01b847b0663/AndroidManifest.xml:20:5-44
MERGED from [com.android.support:support-vector-drawable:27.0.2] /home/wyatt/.gradle/caches/transforms-1/files-1.1/support-vector-drawable-27.0.2.aar/7dcb40215a71b9d4201e6e7c8ecaec71/AndroidManifest.xml:20:5-44
MERGED from [com.android.support:support-vector-drawable:27.0.2] /home/wyatt/.gradle/caches/transforms-1/files-1.1/support-vector-drawable-27.0.2.aar/7dcb40215a71b9d4201e6e7c8ecaec71/AndroidManifest.xml:20:5-44
MERGED from [com.android.support:support-core-ui:27.0.2] /home/wyatt/.gradle/caches/transforms-1/files-1.1/support-core-ui-27.0.2.aar/693a1b94c7d1e441d5a47c4744c82033/AndroidManifest.xml:20:5-44
MERGED from [com.android.support:support-core-ui:27.0.2] /home/wyatt/.gradle/caches/transforms-1/files-1.1/support-core-ui-27.0.2.aar/693a1b94c7d1e441d5a47c4744c82033/AndroidManifest.xml:20:5-44
MERGED from [com.android.support:support-compat:27.0.2] /home/wyatt/.gradle/caches/transforms-1/files-1.1/support-compat-27.0.2.aar/e661249aa6c6284ff695c93a72fbb272/AndroidManifest.xml:20:5-44
MERGED from [com.android.support:support-compat:27.0.2] /home/wyatt/.gradle/caches/transforms-1/files-1.1/support-compat-27.0.2.aar/e661249aa6c6284ff695c93a72fbb272/AndroidManifest.xml:20:5-44
MERGED from [android.arch.lifecycle:runtime:1.0.3] /home/wyatt/.gradle/caches/transforms-1/files-1.1/runtime-1.0.3.aar/f08c248908091d78cf754b44000ce033/AndroidManifest.xml:20:5-22:41
MERGED from [android.arch.lifecycle:runtime:1.0.3] /home/wyatt/.gradle/caches/transforms-1/files-1.1/runtime-1.0.3.aar/f08c248908091d78cf754b44000ce033/AndroidManifest.xml:20:5-22:41
INJECTED from /home/wyatt/Desktop/Projects/grpc_all/grpc-java/examples/android/helloworld/app/src/main/AndroidManifest.xml
INJECTED from /home/wyatt/Desktop/Projects/grpc_all/grpc-java/examples/android/helloworld/app/src/main/AndroidManifest.xml
	android:targetSdkVersion
		INJECTED from /home/wyatt/Desktop/Projects/grpc_all/grpc-java/examples/android/helloworld/app/src/main/AndroidManifest.xml
		ADDED from /home/wyatt/Desktop/Projects/grpc_all/grpc-java/examples/android/helloworld/app/src/main/AndroidManifest.xml
		INJECTED from /home/wyatt/Desktop/Projects/grpc_all/grpc-java/examples/android/helloworld/app/src/main/AndroidManifest.xml
	android:minSdkVersion
		INJECTED from /home/wyatt/Desktop/Projects/grpc_all/grpc-java/examples/android/helloworld/app/src/main/AndroidManifest.xml
		ADDED from /home/wyatt/Desktop/Projects/grpc_all/grpc-java/examples/android/helloworld/app/src/main/AndroidManifest.xml
		INJECTED from /home/wyatt/Desktop/Projects/grpc_all/grpc-java/examples/android/helloworld/app/src/main/AndroidManifest.xml
